{
  "admin_records": [
    {
      "event": "Credit Card/Coupon Action",
      "session": {
        "created_timestamp": 1528109376,
        "ip_address": "212.90.209.233",
        "user_agent": "Mozilla/5.0 (Macintosh; Intel Mac OS X 10_13_4) AppleWebKit/537.36 (KHTML, like Gecko) Chrome/66.0.3359.181 Safari/537.36",
        "datr_cookie": "z3yY********************"
      }
    },
    {
      "event": "Username",
      "session": {
        "created_timestamp": 1505374320,
        "ip_address": "212.90.209.233"
      }
    },
    {
      "event": "Username",
      "session": {
        "created_timestamp": 1505374320,
        "ip_address": "212.90.209.233"
      }
    },
    {
      "event": "Network Change for User",
      "session": {
        "created_timestamp": 1495015768,
        "ip_address": "188.155.52.6",
        "user_agent": "Mozilla/5.0 (Macintosh; Intel Mac OS X 10_11_6) AppleWebKit/537.36 (KHTML, like Gecko) Chrome/58.0.3029.110 Safari/537.36 cc62e88a49ef224505d3e095946ce458df6c8446",
        "datr_cookie": "XlCD********************"
      }
    },
    {
      "event": "Network Change for User",
      "session": {
        "created_timestamp": 1495015765,
        "ip_address": "188.155.52.6",
        "user_agent": "Mozilla/5.0 (Macintosh; Intel Mac OS X 10_11_6) AppleWebKit/537.36 (KHTML, like Gecko) Chrome/58.0.3029.110 Safari/537.36 cc62e88a49ef224505d3e095946ce458df6c8446",
        "datr_cookie": "XlCD********************"
      }
    },
    {
      "event": "Network Change for User",
      "session": {
        "created_timestamp": 1495015761,
        "ip_address": "188.155.52.6",
        "user_agent": "Mozilla/5.0 (Macintosh; Intel Mac OS X 10_11_6) AppleWebKit/537.36 (KHTML, like Gecko) Chrome/58.0.3029.110 Safari/537.36 cc62e88a49ef224505d3e095946ce458df6c8446",
        "datr_cookie": "XlCD********************"
      }
    },
    {
      "event": "Network Change for User",
      "session": {
        "created_timestamp": 1495015758,
        "ip_address": "188.155.52.6",
        "user_agent": "Mozilla/5.0 (Macintosh; Intel Mac OS X 10_11_6) AppleWebKit/537.36 (KHTML, like Gecko) Chrome/58.0.3029.110 Safari/537.36 cc62e88a49ef224505d3e095946ce458df6c8446",
        "datr_cookie": "XlCD********************"
      }
    },
    {
      "event": "Username",
      "session": {
        "created_timestamp": 1488271519,
        "ip_address": "193.36.32.232"
      }
    },
    {
      "event": "Checkpoint completed",
      "session": {
        "created_timestamp": 1468326751,
        "ip_address": "92.106.137.90"
      }
    },
    {
      "event": "Remove Profile Photo",
      "session": {
        "created_timestamp": 1391337671,
        "ip_address": "83.150.9.255",
        "user_agent": "Mozilla/5.0 (Macintosh; Intel Mac OS X 10_8_5) AppleWebKit/537.36 (KHTML, like Gecko) Chrome/32.0.1700.77 Safari/537.36",
        "datr_cookie": "e4zW********************"
      }
    },
    {
      "event": "Password Change",
      "session": {
        "created_timestamp": 1301497976,
        "ip_address": "129.132.146.66",
        "user_agent": "Mozilla/5.0 (Macintosh; U; Intel Mac OS X 10.4; en-US; rv:1.9.2.16) Gecko/20110319 Firefox/3.6.16",
        "datr_cookie": "1WmS********************"
      }
    }
  ]
}